%YAML 1.1
%TAG !u! tag:unity3d.com,2011:
--- !u!114 &11400000
MonoBehaviour:
  m_ObjectHideFlags: 0
  m_CorrespondingSourceObject: {fileID: 0}
  m_PrefabInstance: {fileID: 0}
  m_PrefabAsset: {fileID: 0}
  m_GameObject: {fileID: 0}
  m_Enabled: 1
  m_EditorHideFlags: 0
  m_Script: {fileID: 11500000, guid: 82a699077f7b12645a06e74b170fc26f, type: 3}
  m_Name: Enemy1
  m_EditorClassIdentifier: 
  _mainSprite: {fileID: 21300000, guid: 75681a7c48df0774e9549b306ec6248e, type: 3}
  _deadSprite: {fileID: 21300000, guid: 5f57eff2e048be8488bfce7aa4628ba4, type: 3}
  _score: 1
  _health: 1
  _speed: 2
  _damage: 1
  _speedEating: 0.5
